tests/systemc/tracing/vcd_trace/test07/golden/test07.vcd

$timescale
     1 ps
$end

$scope module SystemC $end
$var wire    4  aaa  Signed       $end
$var wire    4  aab  Unsigned       $end
$var wire    4  aac  BV       $end
$var wire    4  aad  SV       $end
$upscope $end
$enddefinitions  $end

$comment
All initial values are dumped below at time 0 sec = 0 timescale units.
$end

$dumpvars
b0 aaa
b0 aab
b0 aac
b0 aad
$end

#0
b11 aaa
b111 aab
b11 aac
b1100 aad

#10000
b1101 aaa
b101 aab
b1111 aac
b1110 aad

#20000
b11 aaa
b111 aab
b11 aac
b1100 aad

#30000
b1101 aaa
b101 aab
b1111 aac
b1110 aad

#40000
b11 aaa
b111 aab
b11 aac
b1100 aad

#50000
b1101 aaa
b101 aab
b1111 aac
b1110 aad

#60000
b11 aaa
b111 aab
b11 aac
b1100 aad

#70000
b1101 aaa
b101 aab
b1111 aac
b1110 aad

#80000
b11 aaa
b111 aab
b11 aac
b1100 aad

#90000
b1101 aaa
b101 aab
b1111 aac
b1110 aad

#100000
b11 aaa
b111 aab
b11 aac
b1100 aad

#110000
b1101 aaa
b101 aab
b1111 aac
b1110 aad

#120000
b11 aaa
b111 aab
b11 aac
b1100 aad

#130000
b1101 aaa
b101 aab
b1111 aac
b1110 aad

#140000
b11 aaa
b111 aab
b11 aac
b1100 aad

#150000
b1101 aaa
b101 aab
b1111 aac
b1110 aad

#160000
b11 aaa
b111 aab
b11 aac
b1100 aad

#170000
b1101 aaa
b101 aab
b1111 aac
b1110 aad

#180000
b11 aaa
b111 aab
b11 aac
b1100 aad

#190000
b1101 aaa
b101 aab
b1111 aac
b1110 aad

