tests/systemc/tracing/vcd_trace/test11/golden/test11.vcd

$timescale
     1 ps
$end

$scope module SystemC $end
$var wire    1  aaa  Bool       $end
$var wire    1  aab  SC_Logic       $end
$var wire    4  aac  SC_BV       $end
$var wire    4  aad  SC_LV       $end
$var wire    1  aae  Clock       $end
$upscope $end
$enddefinitions  $end

$comment
All initial values are dumped below at time 0 sec = 0 timescale units.
$end

$dumpvars
0aaa
0aab
b0 aac
b0 aad
0aae
$end

#0
b1 aac
b1 aad
1aae

#10000
b11 aac
b11 aad
0aae

#20000
b111 aac
b111 aad
1aae

#30000
b1111 aac
b1111 aad
0aae

#40000
b1110 aac
b1110 aad
1aae

#50000
b1100 aac
b1100 aad
0aae

#60000
b1000 aac
b1000 aad
1aae

#70000
b0 aac
b0 aad
0aae

#80000
b1 aac
b1 aad
1aae

#90000
b11 aac
b11 aad
0aae

#100000
b111 aac
b111 aad
1aae

#110000
b1111 aac
b1111 aad
0aae

#120000
b1110 aac
b1110 aad
1aae

#130000
b1100 aac
b1100 aad
0aae

#140000
b1000 aac
b1000 aad
1aae

#150000
b0 aac
b0 aad
0aae

#160000
b1 aac
b1 aad
1aae

#170000
b11 aac
b11 aad
0aae

#180000
b111 aac
b111 aad
1aae

#190000
b1111 aac
b1111 aad
0aae

