tests/systemc/tracing/vcd_trace/test10/golden/test10.vcd

$timescale
     1 ps
$end

$scope module SystemC $end
$var wire    2  aaa  Enum [1:0]  $end
$var wire    1  aab  Clock       $end
$upscope $end
$enddefinitions  $end

$comment
All initial values are dumped below at time 0 sec = 0 timescale units.
$end

$dumpvars
b0 aaa
0aab
$end

#0
1aab

#10000
b1 aaa
0aab

#20000
b10 aaa
1aab

#30000
b0 aaa
0aab

#40000
b1 aaa
1aab

#50000
b10 aaa
0aab

#60000
b0 aaa
1aab

#70000
b1 aaa
0aab

#80000
b10 aaa
1aab

#90000
b0 aaa
0aab

#100000
b1 aaa
1aab

#110000
b10 aaa
0aab

#120000
b0 aaa
1aab

#130000
b1 aaa
0aab

#140000
b10 aaa
1aab

#150000
b0 aaa
0aab

#160000
b1 aaa
1aab

#170000
b10 aaa
0aab

#180000
b0 aaa
1aab

#190000
b1 aaa
0aab

