tests/systemc/tracing/vcd_trace/test05/golden/test05.vcd

$timescale
     1 ps
$end

$scope module SystemC $end
$var wire    4  aaa  Char       $end
$var wire   12  aab  Short       $end
$var wire   14  aac  Int       $end
$var wire   14  aad  Long       $end
$var wire    1  aae  Clock       $end
$upscope $end
$enddefinitions  $end

$comment
All initial values are dumped below at time 0 sec = 0 timescale units.
$end

$dumpvars
b0 aaa
b0 aab
b0 aac
b0 aad
0aae
$end

#0
b111 aaa
b11111 aab
bx aac
b11111111111 aad
1aae

#10000
b1 aaa
bx aab
b10000000000 aac
bx aad
0aae

#20000
b111 aaa
b11111 aab
bx aac
b11111111111 aad
1aae

#30000
b1 aaa
bx aab
b10000000000 aac
bx aad
0aae

#40000
b111 aaa
b11111 aab
bx aac
b11111111111 aad
1aae

#50000
b1 aaa
bx aab
b10000000000 aac
bx aad
0aae

#60000
b111 aaa
b11111 aab
bx aac
b11111111111 aad
1aae

#70000
b1 aaa
bx aab
b10000000000 aac
bx aad
0aae

#80000
b111 aaa
b11111 aab
bx aac
b11111111111 aad
1aae

#90000
b1 aaa
bx aab
b10000000000 aac
bx aad
0aae

#100000
b111 aaa
b11111 aab
bx aac
b11111111111 aad
1aae

#110000
b1 aaa
bx aab
b10000000000 aac
bx aad
0aae

#120000
b111 aaa
b11111 aab
bx aac
b11111111111 aad
1aae

#130000
b1 aaa
bx aab
b10000000000 aac
bx aad
0aae

#140000
b111 aaa
b11111 aab
bx aac
b11111111111 aad
1aae

#150000
b1 aaa
bx aab
b10000000000 aac
bx aad
0aae

#160000
b111 aaa
b11111 aab
bx aac
b11111111111 aad
1aae

#170000
b1 aaa
bx aab
b10000000000 aac
bx aad
0aae

#180000
b111 aaa
b11111 aab
bx aac
b11111111111 aad
1aae

#190000
b1 aaa
bx aab
b10000000000 aac
bx aad
0aae

