tests/systemc/tracing/vcd_trace/test03/golden/test03.vcd

$timescale
     1 ps
$end

$scope module SystemC $end
$var wire    4  aaa  Char [3:0]  $end
$var wire    4  aab  Short [3:0]  $end
$var wire   12  aac  Int [11:0]  $end
$var wire   10  aad  Long [9:0]  $end
$var wire   43  aae  Uint64 [42:0]  $end
$var wire    1  aaf  Clock       $end
$upscope $end
$enddefinitions  $end

$comment
All initial values are dumped below at time 0 sec = 0 timescale units.
$end

$dumpvars
b0 aaa
b0 aab
b0 aac
b0 aad
b0 aae
0aaf
$end

#0
b111 aaa
bx aab
b1111111111 aac
b111111 aad
b1000000000000000000000000000000000000000000 aae
1aaf

#10000
b1 aaa
b11 aab
b10000000000 aac
bx aad
bx aae
0aaf

#20000
b111 aaa
bx aab
b1111111111 aac
b111111 aad
b1000000000000000000000000000000000000000000 aae
1aaf

#30000
b1 aaa
b11 aab
b10000000000 aac
bx aad
bx aae
0aaf

#40000
b111 aaa
bx aab
b1111111111 aac
b111111 aad
b1000000000000000000000000000000000000000000 aae
1aaf

#50000
b1 aaa
b11 aab
b10000000000 aac
bx aad
bx aae
0aaf

#60000
b111 aaa
bx aab
b1111111111 aac
b111111 aad
b1000000000000000000000000000000000000000000 aae
1aaf

#70000
b1 aaa
b11 aab
b10000000000 aac
bx aad
bx aae
0aaf

#80000
b111 aaa
bx aab
b1111111111 aac
b111111 aad
b1000000000000000000000000000000000000000000 aae
1aaf

#90000
b1 aaa
b11 aab
b10000000000 aac
bx aad
bx aae
0aaf

#100000
b111 aaa
bx aab
b1111111111 aac
b111111 aad
b1000000000000000000000000000000000000000000 aae
1aaf

#110000
b1 aaa
b11 aab
b10000000000 aac
bx aad
bx aae
0aaf

#120000
b111 aaa
bx aab
b1111111111 aac
b111111 aad
b1000000000000000000000000000000000000000000 aae
1aaf

#130000
b1 aaa
b11 aab
b10000000000 aac
bx aad
bx aae
0aaf

#140000
b111 aaa
bx aab
b1111111111 aac
b111111 aad
b1000000000000000000000000000000000000000000 aae
1aaf

#150000
b1 aaa
b11 aab
b10000000000 aac
bx aad
bx aae
0aaf

#160000
b111 aaa
bx aab
b1111111111 aac
b111111 aad
b1000000000000000000000000000000000000000000 aae
1aaf

#170000
b1 aaa
b11 aab
b10000000000 aac
bx aad
bx aae
0aaf

#180000
b111 aaa
bx aab
b1111111111 aac
b111111 aad
b1000000000000000000000000000000000000000000 aae
1aaf

#190000
b1 aaa
b11 aab
b10000000000 aac
bx aad
bx aae
0aaf

