tests/systemc/tracing/vcd_trace/test04/golden/test04.vcd

$timescale
     1 ps
$end

$scope module SystemC $end
$var wire    8  aaa  Char       $end
$var wire   16  aab  Short       $end
$var wire   32  aac  Int       $end
$var wire   32  aad  Long       $end
$var wire    1  aae  Clock       $end
$upscope $end
$enddefinitions  $end

$comment
All initial values are dumped below at time 0 sec = 0 timescale units.
$end

$dumpvars
b0 aaa
b0 aab
b0 aac
b0 aad
0aae
$end

#0
b111 aaa
b11111 aab
b11111111111111111111110000000001 aac
b11111111111 aad
1aae

#10000
b1 aaa
b1111111111111110 aab
b10000000000 aac
b11111111111111111111100000000000 aad
0aae

#20000
b111 aaa
b11111 aab
b11111111111111111111110000000001 aac
b11111111111 aad
1aae

#30000
b1 aaa
b1111111111111110 aab
b10000000000 aac
b11111111111111111111100000000000 aad
0aae

#40000
b111 aaa
b11111 aab
b11111111111111111111110000000001 aac
b11111111111 aad
1aae

#50000
b1 aaa
b1111111111111110 aab
b10000000000 aac
b11111111111111111111100000000000 aad
0aae

#60000
b111 aaa
b11111 aab
b11111111111111111111110000000001 aac
b11111111111 aad
1aae

#70000
b1 aaa
b1111111111111110 aab
b10000000000 aac
b11111111111111111111100000000000 aad
0aae

#80000
b111 aaa
b11111 aab
b11111111111111111111110000000001 aac
b11111111111 aad
1aae

#90000
b1 aaa
b1111111111111110 aab
b10000000000 aac
b11111111111111111111100000000000 aad
0aae

#100000
b111 aaa
b11111 aab
b11111111111111111111110000000001 aac
b11111111111 aad
1aae

#110000
b1 aaa
b1111111111111110 aab
b10000000000 aac
b11111111111111111111100000000000 aad
0aae

#120000
b111 aaa
b11111 aab
b11111111111111111111110000000001 aac
b11111111111 aad
1aae

#130000
b1 aaa
b1111111111111110 aab
b10000000000 aac
b11111111111111111111100000000000 aad
0aae

#140000
b111 aaa
b11111 aab
b11111111111111111111110000000001 aac
b11111111111 aad
1aae

#150000
b1 aaa
b1111111111111110 aab
b10000000000 aac
b11111111111111111111100000000000 aad
0aae

#160000
b111 aaa
b11111 aab
b11111111111111111111110000000001 aac
b11111111111 aad
1aae

#170000
b1 aaa
b1111111111111110 aab
b10000000000 aac
b11111111111111111111100000000000 aad
0aae

#180000
b111 aaa
b11111 aab
b11111111111111111111110000000001 aac
b11111111111 aad
1aae

#190000
b1 aaa
b1111111111111110 aab
b10000000000 aac
b11111111111111111111100000000000 aad
0aae

