tests/systemc/tracing/vcd_trace/test04/golden/test04.vcd

$timescale
     1 ps
$end

$scope module SystemC $end
$var wire    8  aaa  Char [7:0]  $end
$var wire   16  aab  Short [15:0]  $end
$var wire   32  aac  Int [31:0]  $end
$var wire   32  aad  Long [31:0]  $end
$var wire   64  aae  int64 [63:0]  $end
$var wire    1  aaf  Clock       $end
$upscope $end
$enddefinitions  $end

$comment
All initial values are dumped below at time 0 sec = 0 timescale units.
$end

$dumpvars
b0 aaa
b0 aab
b0 aac
b0 aad
b0 aae
0aaf
$end

#0
b111 aaa
b11111 aab
b11111111111111111111110000000001 aac
b11111111111 aad
b1111111111111111111111111111111111111111 aae
1aaf

#10000
b1 aaa
b1111111111111110 aab
b10000000000 aac
b11111111111111111111100000000000 aad
b1111111111111111111111110000000000000000000000000000000000000000 aae
0aaf

#20000
b111 aaa
b11111 aab
b11111111111111111111110000000001 aac
b11111111111 aad
b1111111111111111111111111111111111111111 aae
1aaf

#30000
b1 aaa
b1111111111111110 aab
b10000000000 aac
b11111111111111111111100000000000 aad
b1111111111111111111111110000000000000000000000000000000000000000 aae
0aaf

#40000
b111 aaa
b11111 aab
b11111111111111111111110000000001 aac
b11111111111 aad
b1111111111111111111111111111111111111111 aae
1aaf

#50000
b1 aaa
b1111111111111110 aab
b10000000000 aac
b11111111111111111111100000000000 aad
b1111111111111111111111110000000000000000000000000000000000000000 aae
0aaf

#60000
b111 aaa
b11111 aab
b11111111111111111111110000000001 aac
b11111111111 aad
b1111111111111111111111111111111111111111 aae
1aaf

#70000
b1 aaa
b1111111111111110 aab
b10000000000 aac
b11111111111111111111100000000000 aad
b1111111111111111111111110000000000000000000000000000000000000000 aae
0aaf

#80000
b111 aaa
b11111 aab
b11111111111111111111110000000001 aac
b11111111111 aad
b1111111111111111111111111111111111111111 aae
1aaf

#90000
b1 aaa
b1111111111111110 aab
b10000000000 aac
b11111111111111111111100000000000 aad
b1111111111111111111111110000000000000000000000000000000000000000 aae
0aaf

#100000
b111 aaa
b11111 aab
b11111111111111111111110000000001 aac
b11111111111 aad
b1111111111111111111111111111111111111111 aae
1aaf

#110000
b1 aaa
b1111111111111110 aab
b10000000000 aac
b11111111111111111111100000000000 aad
b1111111111111111111111110000000000000000000000000000000000000000 aae
0aaf

#120000
b111 aaa
b11111 aab
b11111111111111111111110000000001 aac
b11111111111 aad
b1111111111111111111111111111111111111111 aae
1aaf

#130000
b1 aaa
b1111111111111110 aab
b10000000000 aac
b11111111111111111111100000000000 aad
b1111111111111111111111110000000000000000000000000000000000000000 aae
0aaf

#140000
b111 aaa
b11111 aab
b11111111111111111111110000000001 aac
b11111111111 aad
b1111111111111111111111111111111111111111 aae
1aaf

#150000
b1 aaa
b1111111111111110 aab
b10000000000 aac
b11111111111111111111100000000000 aad
b1111111111111111111111110000000000000000000000000000000000000000 aae
0aaf

#160000
b111 aaa
b11111 aab
b11111111111111111111110000000001 aac
b11111111111 aad
b1111111111111111111111111111111111111111 aae
1aaf

#170000
b1 aaa
b1111111111111110 aab
b10000000000 aac
b11111111111111111111100000000000 aad
b1111111111111111111111110000000000000000000000000000000000000000 aae
0aaf

#180000
b111 aaa
b11111 aab
b11111111111111111111110000000001 aac
b11111111111 aad
b1111111111111111111111111111111111111111 aae
1aaf

#190000
b1 aaa
b1111111111111110 aab
b10000000000 aac
b11111111111111111111100000000000 aad
b1111111111111111111111110000000000000000000000000000000000000000 aae
0aaf

