tests/systemc/tracing/vcd_trace/test01/golden/test01.vcd

$timescale
     1 ps
$end

$scope module SystemC $end
$var wire    1  aaa  Bool       $end
$var wire    1  aab  SC_Logic       $end
$var wire    4  aaaac  SC_BV [3:0]  $end
$var wire    4  aaaad  SC_LV [3:0]  $end
$upscope $end
$enddefinitions  $end

$comment
All initial values are dumped below at time 0 sec = 0 timescale units.
$end

$dumpvars
0aaa
0aab
b0 aaaac
b0 aaaad
$end

#0
1aab
b1111 aaaad

#10000
1aaa
0aab
b1010 aaaac
b1011 aaaad

#20000
b101 aaaac
b101 aaaad

#30000
0aaa
1aab
b0 aaaac
b1111 aaaad

#40000
1aaa
0aab
b1010 aaaac
b1011 aaaad

#50000
b110 aaaac
b110 aaaad

#60000
0aaa
1aab
b0 aaaac
b1111 aaaad

#70000
1aaa
0aab
b1010 aaaac
b1011 aaaad

#80000
b111 aaaac
b111 aaaad

#90000
0aaa
1aab
b0 aaaac
b1111 aaaad

#100000
1aaa
0aab
b1010 aaaac
b1011 aaaad

#110000
b1000 aaaac
b1000 aaaad

#120000
0aaa
1aab
b0 aaaac
b1111 aaaad

#130000
1aaa
0aab
b1010 aaaac
b1011 aaaad

#140000
b1001 aaaac
b1001 aaaad

#150000
0aaa
1aab
b0 aaaac
b1111 aaaad

#160000
1aaa
0aab
b1010 aaaac
b1011 aaaad

#170000
b1010 aaaad

#180000
0aaa
1aab
b0 aaaac
b1111 aaaad

#190000
1aaa
0aab
b1010 aaaac
b1011 aaaad

