tests/systemc/tracing/vcd_trace/test01/golden/test01.vcd

$timescale
     1 ps
$end

$scope module SystemC $end
$var wire    1  aaaaa  Bool       $end
$var wire    1  aaaab  SC_Logic       $end
$var wire    4  aaaac  SC_BV [3:0]  $end
$var wire    4  aaaad  SC_LV [3:0]  $end
$var wire   16  aaaae  SC_Fixed [15:0]  $end
$var wire   16  aaaaf  SC_Ufixed [15:0]  $end
$upscope $end
$enddefinitions  $end

$comment
All initial values are dumped below at time 0 sec = 0 timescale units.
$end

$dumpvars
0aaaaa
1aaaab
b0 aaaac
b1111 aaaad
b1111111010000000 aaaae
b1111111010000000 aaaaf
$end

#10000
1aaaaa
0aaaab
b1010 aaaac
b1011 aaaad
b1101001101 aaaae

#20000
b101 aaaac
b101 aaaad
b10001100111 aaaaf

#30000
0aaaaa
1aaaab
b0 aaaac
b1111 aaaad
b1111111010000000 aaaae
b1111111010000000 aaaaf

#40000
1aaaaa
0aaaab
b1010 aaaac
b1011 aaaad
b1101001101 aaaae

#50000
b110 aaaac
b110 aaaad
b10001100111 aaaaf

#60000
0aaaaa
1aaaab
b0 aaaac
b1111 aaaad
b1111111010000000 aaaae
b1111111010000000 aaaaf

#70000
1aaaaa
0aaaab
b1010 aaaac
b1011 aaaad
b1101001101 aaaae

#80000
b111 aaaac
b111 aaaad
b10001100111 aaaaf

#90000
0aaaaa
1aaaab
b0 aaaac
b1111 aaaad
b1111111010000000 aaaae
b1111111010000000 aaaaf

#100000
1aaaaa
0aaaab
b1010 aaaac
b1011 aaaad
b1101001101 aaaae

#110000
b1000 aaaac
b1000 aaaad
b10001100111 aaaaf

#120000
0aaaaa
1aaaab
b0 aaaac
b1111 aaaad
b1111111010000000 aaaae
b1111111010000000 aaaaf

#130000
1aaaaa
0aaaab
b1010 aaaac
b1011 aaaad
b1101001101 aaaae

#140000
b1001 aaaac
b1001 aaaad
b10001100111 aaaaf

#150000
0aaaaa
1aaaab
b0 aaaac
b1111 aaaad
b1111111010000000 aaaae
b1111111010000000 aaaaf

#160000
1aaaaa
0aaaab
b1010 aaaac
b1011 aaaad
b1101001101 aaaae

#170000
b1010 aaaad
b10001100111 aaaaf

#180000
0aaaaa
1aaaab
b0 aaaac
b1111 aaaad
b1111111010000000 aaaae
b1111111010000000 aaaaf

#190000
1aaaaa
0aaaab
b1010 aaaac
b1011 aaaad
b1101001101 aaaae

